[
   "danger-prose",
   "danger-android_lint",
   "danger-changelog",
   "danger-clorox",
   "danger-commit_lint",
   "danger-conflict_checker",
   "danger-duplicate_localizable_strings",
   "danger-eslint",
   "danger-findbugs",
   "danger-jazzy",
   "danger-jenkins",
   "danger-junit",
   "danger-lgtm",
   "danger-mention",
   "danger-missed_localizable_strings",
   "danger-pep8",
   "danger-pronto",
   "danger-rubocop",
   "danger-shellcheck",
   "danger-simplecov_json",
   "danger-slack",
   "danger-slather",
   "danger-swiftlint",
   "danger-tailor",
   "danger-the_coding_love",
   "danger-todoist",
   "danger-transifex",
   "danger-xcode_summary",
   "danger-xcodebuild",
   "danger-xcov",
   "danger-hlint",
   "danger-welcome_message",
   "danger-checkstyle_format"
]
