<?xml version="1.0" encoding="UTF-8"?>
<svg width="879px" height="118px" viewBox="0 0 879 118" version="1.1" xmlns="http://www.w3.org/2000/svg" xmlns:xlink="http://www.w3.org/1999/xlink">
    <!-- Generator: Sketch 43.1 (39012) - http://www.bohemiancoding.com/sketch -->
    <title>before</title>
    <desc>Created with Sketch.</desc>
    <defs></defs>
    <g id="-" stroke="none" stroke-width="1" fill="none" fill-rule="evenodd">
        <g id="About" transform="translate(-62.000000, -981.000000)">
            <g id="before" transform="translate(62.000000, 981.000000)">
                <path d="M125,22.8670474 L173.662115,22.8670474 L170.78451,13.8260438 C170.677481,13.4897313 170.8709,13.1326758 171.216554,13.0285272 C171.398141,12.9738201 171.595215,12.9985409 171.756596,13.0962894 L191.690977,27.6173513 C191.998159,27.8034011 192.092176,28.1965115 191.900945,28.4954049 C191.873834,28.5377834 191.841692,28.5769236 191.805186,28.6120095 L174.092403,43.1903857 C173.835001,43.4378104 173.420174,43.4353626 173.165877,43.1849035 C173.015752,43.0370632 172.949134,42.827287 172.98737,42.6228146 L174.523281,34.4076181 C174.522679,34.4078859 125,34.4076181 125,34.4076181 L125,22.8670474 Z" id="Arrow-33-shape" fill="#F0D34B"></path>
                <path d="M732,22.8670474 L760.662115,22.8670474 L757.78451,13.8260438 C757.677481,13.4897313 757.8709,13.1326758 758.216554,13.0285272 C758.398141,12.9738201 758.595215,12.9985409 758.756596,13.0962894 L778.690977,27.6173513 C778.998159,27.8034011 779.092176,28.1965115 778.900945,28.4954049 C778.873834,28.5377834 778.841692,28.5769236 778.805186,28.6120095 L761.092403,43.1903857 C760.835001,43.4378104 760.420174,43.4353626 760.165877,43.1849035 C760.015752,43.0370632 759.949134,42.827287 759.98737,42.6228146 L761.523281,34.4076181 C761.522679,34.4078859 732,34.4076181 732,34.4076181 L732,22.8670474 Z" id="Arrow-33-shape-Copy-16" fill="#F0D34B"></path>
                <path d="M337,22.8670474 L385.662115,22.8670474 L382.78451,13.8260438 C382.677481,13.4897313 382.8709,13.1326758 383.216554,13.0285272 C383.398141,12.9738201 383.595215,12.9985409 383.756596,13.0962894 L403.690977,27.6173513 C403.998159,27.8034011 404.092176,28.1965115 403.900945,28.4954049 C403.873834,28.5377834 403.841692,28.5769236 403.805186,28.6120095 L386.092403,43.1903857 C385.835001,43.4378104 385.420174,43.4353626 385.165877,43.1849035 C385.015752,43.0370632 384.949134,42.827287 384.98737,42.6228146 L386.523281,34.4076181 C386.522679,34.4078859 337,34.4076181 337,34.4076181 L337,22.8670474 Z" id="Arrow-33-shape-Copy" fill="#F0D34B"></path>
                <path d="M533,19.8670474 L581.662115,19.8670474 L578.78451,10.8260438 C578.677481,10.4897313 578.8709,10.1326758 579.216554,10.0285272 C579.398141,9.97382014 579.595215,9.99854094 579.756596,10.0962894 L599.690977,24.6173513 C599.998159,24.8034011 600.092176,25.1965115 599.900945,25.4954049 C599.873834,25.5377834 599.841692,25.5769236 599.805186,25.6120095 L582.092403,40.1903857 C581.835001,40.4378104 581.420174,40.4353626 581.165877,40.1849035 C581.015752,40.0370632 580.949134,39.827287 580.98737,39.6228146 L582.523281,31.4076181 C582.522679,31.4078859 533,31.4076181 533,31.4076181 L533,19.8670474 Z" id="Arrow-33-shape-Copy-2" fill="#F0D34B"></path>
                <path d="M103,96.8670474 L151.662115,96.8670474 L148.78451,87.8260438 C148.677481,87.4897313 148.8709,87.1326758 149.216554,87.0285272 C149.398141,86.9738201 149.595215,86.9985409 149.756596,87.0962894 L169.690977,101.617351 C169.998159,101.803401 170.092176,102.196511 169.900945,102.495405 C169.873834,102.537783 169.841692,102.576924 169.805186,102.61201 L152.092403,117.190386 C151.835001,117.43781 151.420174,117.435363 151.165877,117.184904 C151.015752,117.037063 150.949134,116.827287 150.98737,116.622815 L152.523281,108.407618 C152.522679,108.407886 103,108.407618 103,108.407618 L103,96.8670474 Z" id="Arrow-33-shape-Copy-4" fill="#F0D34B" transform="translate(136.500000, 102.187181) scale(-1, 1) translate(-136.500000, -102.187181) "></path>
                <g id="Small-Button---thin---2-line-" transform="translate(0.000000, 1.000000)">
                    <g id="Small-Button">
                        <rect id="Background" stroke="#9B9B9B" stroke-width="2" x="1" y="1" width="88" height="53" rx="8"></rect>
                        <text id="Text" font-family="AvantGardeGothicITCW01Dm, Avant Garde Gothic ITCW01Dm" font-size="14" font-weight="normal" fill="#9B9B9B">
                            <tspan x="27.08" y="24">PUSH</tspan>
                            <tspan x="24" y="42">CODE</tspan>
                        </text>
                    </g>
                </g>
                <g id="Small-Button---thin---1-line-" transform="translate(212.000000, 1.000000)">
                    <g id="Small-Button">
                        <rect id="Background" stroke="#9B9B9B" stroke-width="2" x="1" y="1" width="88" height="53" rx="8"></rect>
                        <text id="Text" font-family="AvantGardeGothicITCW01Dm, Avant Garde Gothic ITCW01Dm" font-size="14" font-weight="normal" fill="#9B9B9B">
                            <tspan x="30.72" y="32">LINT</tspan>
                        </text>
                    </g>
                </g>
                <g id="Small-Button---thin---1-line-" transform="translate(424.000000, 0.000000)">
                    <g id="Small-Button">
                        <rect id="Background" stroke="#9B9B9B" stroke-width="2" x="1" y="1" width="88" height="53" rx="8"></rect>
                        <text id="Text" font-family="AvantGardeGothicITCW01Dm, Avant Garde Gothic ITCW01Dm" font-size="14" font-weight="normal" fill="#9B9B9B">
                            <tspan x="26.8" y="32">TESTS</tspan>
                        </text>
                    </g>
                </g>
                <g id="Small-Button---thin---2-line-" transform="translate(789.000000, 0.000000)">
                    <g id="Small-Button">
                        <rect id="Background" stroke="#9B9B9B" stroke-width="2" x="1" y="1" width="88" height="53" rx="8"></rect>
                        <text id="Text" font-family="AvantGardeGothicITCW01Dm, Avant Garde Gothic ITCW01Dm" font-size="14" font-weight="normal" fill="#9B9B9B">
                            <tspan x="17.7" y="24">HUMAN</tspan>
                            <tspan x="14.9" y="42">REVIEWS</tspan>
                        </text>
                    </g>
                </g>
                <path d="M762.973102,91.4462339 C775.188326,100.603308 794.994538,96.8620004 794.994538,96.8620004 C794.994538,96.8620004 817.110611,100.394892 816.881134,100.761277 C816.848601,100.813225 808.318765,106.250548 808.318765,106.250548 C808.318042,106.250876 773.440552,113.158013 759.603141,101.12213 C745.74727,89.0958906 745.000079,67.9993592 745,68 C745.000079,67.9997343 750.779467,82.2767664 762.973102,91.4462339 Z" id="Arrow-33-shape" fill="#F0D34B" transform="translate(780.941454, 88.111696) scale(-1, 1) translate(-780.941454, -88.111696) "></path>
                <path d="M202.973102,91.4462339 C215.188326,100.603308 234.994538,96.8620004 234.994538,96.8620004 C234.994538,96.8620004 257.110611,100.394892 256.881134,100.761277 C256.848601,100.813225 248.318765,106.250548 248.318765,106.250548 C248.318042,106.250876 213.440552,113.158013 199.603141,101.12213 C185.74727,89.0958906 185.000079,67.9993592 185,68 C185.000079,67.9997343 190.779467,82.2767664 202.973102,91.4462339 Z" id="Arrow-33-shape-Copy-19" fill="#F0D34B" transform="translate(220.941454, 88.111696) scale(-1, 1) translate(-220.941454, -88.111696) "></path>
                <path d="M419.973102,91.4462339 C432.188326,100.603308 451.994538,96.8620004 451.994538,96.8620004 C451.994538,96.8620004 474.110611,100.394892 473.881134,100.761277 C473.848601,100.813225 465.318765,106.250548 465.318765,106.250548 C465.318042,106.250876 430.440552,113.158013 416.603141,101.12213 C402.74727,89.0958906 402.000079,67.9993592 402,68 C402.000079,67.9997343 407.779467,82.2767664 419.973102,91.4462339 Z" id="Arrow-33-shape-Copy-20" fill="#F0D34B" transform="translate(437.941454, 88.111696) scale(-1, 1) translate(-437.941454, -88.111696) "></path>
                <rect id="Rectangle" fill="#F0D34B" x="168" y="97" width="615" height="11.5"></rect>
                <polygon id="Triangle-Copy-4" fill="#F0D34B" points="705 19 722 53 688 53"></polygon>
                <polygon id="Triangle-Copy-5" fill="#F0D34B" points="705 34 688 0 722 0"></polygon>
                <g id="Group-3" transform="translate(618.000000, 13.000000)">
                    <circle id="Oval-Copy-2" fill="#FA1C7E" cx="12" cy="12" r="12"></circle>
                    <path d="M3.62974094,20.5987747 C1.39067335,18.418845 0,15.3718271 0,12 C0,5.372583 5.372583,0 12,0 C15.3718271,0 18.418845,1.39067335 20.5987747,3.62974094 L3.62974094,20.5987747 Z" id="Combined-Shape" fill="#87CA85"></path>
                </g>
            </g>
        </g>
    </g>
</svg>